{
  "schedule": {
    "selectedDatetime" : "2017-06-22 15:15:00",
    "currentDatetime": "2017-06-22 15:15:00",
    "categories": ["Documentary", "News", "Entertainment"],
    "todayText": "Today",
    "days": ["prefix dd/MM", "prefix dd/MM", "prefix dd/MM"],

    "channels": [
      {
        "name": "Discovery Channel",
        "category": "Documentary",
        "id": 1,
        "image": "https://res.cloudinary.com/discovery-go/image/upload/c_fill,w_105,h_95,q_auto/v1486574551/DSC-hr-networklogo-105x95.png",
        "programs": [
          {
            "title": "Alaska, the last frontier",
            "startTime": "2017-06-22 08:00:00",
            "endTime": "2017-06-22 09:00:00",
            "id": 1
          },
          {
            "title": "Homestead Rescue",
            "startTime": "2017-06-22 09:00:00",
            "endTime": "2017-06-22 10:00:00",
            "id": 2
          },
          {
            "title": "Alaska: The Last Frontier",
            "startTime": "2017-06-22 11:00:00",
            "endTime": "2017-06-22 12:30:00",
            "id": 3
          },
          {
            "title": "Into the wild",
            "startTime": "2017-06-22 12:30:00",
            "endTime": "2017-06-22 13:30:00",
            "id": 4
          },
          {
            "title": "Amazon trees",
            "startTime": "2017-06-22 13:30:00",
            "endTime": "2017-06-22 14:30:00",
            "id": 5
          },
          {
            "title": "Alaska, the last frontier",
            "startTime": "2017-06-22 14:30:00",
            "endTime": "2017-06-22 16:00:00",
            "id": 6
          },
          {
            "title": "Homestead Rescue",
            "startTime": "2017-06-22 16:00:00",
            "endTime": "2017-06-22 18:00:00",
            "id": 7
          },
          {
            "title": "Alaska: The Last Frontier",
            "startTime": "2017-06-22 18:00:00",
            "endTime": "2017-06-22 20:30:00",
            "id": 8
          },
          {
            "title": "Into the wild",
            "startTime": "2017-06-22 20:30:00",
            "endTime": "2017-06-22 22:30:00",
            "id": 9
          }
        ]
      },
      {

        "name": "Ert",
        "category": "News",
        "id": 2,
        "image": "http://www.ert.gr/wp-content/uploads/2015/12/Greece-ERT.png",
        "programs": [
          {
            "title": "Weather report",
            "startTime": "2017-06-22 10:00:00",
            "endTime": "2017-06-22 11:00:00",
            "id": 10
          },
          {
            "title": "Daily News",
            "startTime": "2017-06-22 11:00:00",
            "endTime": "2017-06-22 12:00:00",
            "id": 11
          },
          {
            "title": "Sports show",
            "startTime": "2017-06-22 13:00:00",
            "endTime": "2017-06-22 14:00:00",
            "id": 12
          }
        ]
      },

      {
        "name": "Discovery Channel",
        "category": "Documentary",
        "id": 3,
        "image": null,
        "programs": [

          {
            "title": "Into the wild",
            "startTime": "2017-06-22 08:00:00",
            "endTime": "2017-06-22 10:30:00",
            "id": 13
          },
          {
            "title": "Amazon trees",
            "startTime": "2017-06-22 10:30:00",
            "endTime": "2017-06-22 12:30:00",
            "id": 14
          },
          {
            "title": "Strange animals",
            "startTime": "2017-06-22 15:00:00",
            "endTime": "2017-06-22 17:00:00",
            "id": 15
          }
        ]
      },

      {

        "name": "Ert",
        "category": "News",
        "id": 4,
        "image": "http://www.ert.gr/wp-content/uploads/2015/12/Greece-ERT.png",
        "programs": [
          {
            "title": "Weather report",
            "startTime": "2017-06-22 10:00:00",
            "endTime": "2017-06-22 11:00:00",
            "id": 16
          },
          {
            "title": "Daily News",
            "startTime": "2017-06-22 11:00:00",
            "endTime": "2017-06-22 12:00:00",
            "id": 17
          },
          {
            "title": "Sports show",
            "startTime": "2017-06-22 13:00:00",
            "endTime": "2017-06-22 14:00:00",
            "id": 18
          }
        ]
      }

    ]

  }

}
